{"alltotalfee":"3.40","querynowdate":"2017年03月07日","callTotaltime":"32分钟16秒","queryDateScope":"2017-03-01至2017-03-07","pageMap":{"result":[{"businesstype":"","longtype":"06","thtype":"02","calledhome":"上海","cellid":"11381","thtypeName":"语音电话","twoplusfee":"","calllonghour":"5秒","calldate":"2017-03-07","calltime":"08:12:40","totalfee":"0.00","calltype":"1","othernum":"10010","otherarea":"310","romatype":"1","homearea":"上海","homenum":"","calltypeName":"主叫","landtype":"国内通话","romatypeName":"VPN呼叫","homeareaName":"上海","nativefee":"0.00","landfee":"0.00","roamfee":"0.00","deratefee":"0.00","otherfee":"0.00"},{"businesstype":"","longtype":"06","thtype":"02","calledhome":"上海","cellid":"10633","thtypeName":"语音电话","twoplusfee":"","calllonghour":"40秒","calldate":"2017-03-06","calltime":"19:34:02","totalfee":"0.20","calltype":"1","othernum":"15021050354","otherarea":"310","romatype":"1","homearea":"上海","homenum":"","calltypeName":"主叫","landtype":"国内通话","romatypeName":"VPN呼叫","homeareaName":"上海","nativefee":"0.20","landfee":"0.00","roamfee":"0.00","deratefee":"0.00","otherfee":"0.00"},{"businesstype":"","longtype":"06","thtype":"02","calledhome":"上海","cellid":"50634","thtypeName":"语音电话","twoplusfee":"","calllonghour":"49秒","calldate":"2017-03-06","calltime":"19:29:34","totalfee":"0.20","calltype":"1","othernum":"15021050354","otherarea":"310","romatype":"1","homearea":"上海","homenum":"","calltypeName":"主叫","landtype":"国内通话","romatypeName":"VPN呼叫","homeareaName":"上海","nativefee":"0.20","landfee":"0.00","roamfee":"0.00","deratefee":"0.00","otherfee":"0.00"},{"businesstype":"","longtype":"06","thtype":"02","calledhome":"上海","cellid":"48033","thtypeName":"语音电话","twoplusfee":"","calllonghour":"2分36秒","calldate":"2017-03-06","calltime":"17:43:52","totalfee":"0.00","calltype":"1","othernum":"10010","otherarea":"310","romatype":"1","homearea":"上海","homenum":"","calltypeName":"主叫","landtype":"国内通话","romatypeName":"VPN呼叫","homeareaName":"上海","nativefee":"0.00","landfee":"0.00","roamfee":"0.00","deratefee":"0.00","otherfee":"0.00"},{"businesstype":"","longtype":"06","thtype":"02","calledhome":"上海","cellid":"48033","thtypeName":"语音电话","twoplusfee":"","calllonghour":"2分42秒","calldate":"2017-03-06","calltime":"17:07:37","totalfee":"0.00","calltype":"1","othernum":"10010","otherarea":"310","romatype":"1","homearea":"上海","homenum":"","calltypeName":"主叫","landtype":"国内通话","romatypeName":"VPN呼叫","homeareaName":"上海","nativefee":"0.00","landfee":"0.00","roamfee":"0.00","deratefee":"0.00","otherfee":"0.00"},{"businesstype":"","longtype":"06","thtype":"02","calledhome":"北京","cellid":"48033","thtypeName":"语音电话","twoplusfee":"","calllonghour":"32秒","calldate":"2017-03-06","calltime":"14:49:57","totalfee":"0.00","calltype":"2","othernum":"01053827989","otherarea":"110","romatype":"1","homearea":"上海","homenum":"","calltypeName":"被叫","landtype":"国内通话","romatypeName":"VPN呼叫","homeareaName":"上海","nativefee":"0.00","landfee":"0.00","roamfee":"0.00","deratefee":"0.00","otherfee":"0.00"},{"businesstype":"","longtype":"06","thtype":"02","calledhome":"上海","cellid":"47242","thtypeName":"语音电话","twoplusfee":"","calllonghour":"20秒","calldate":"2017-03-05","calltime":"18:48:59","totalfee":"0.20","calltype":"1","othernum":"15002173065","otherarea":"310","romatype":"1","homearea":"上海","homenum":"","calltypeName":"主叫","landtype":"国内通话","romatypeName":"VPN呼叫","homeareaName":"上海","nativefee":"0.20","landfee":"0.00","roamfee":"0.00","deratefee":"0.00","otherfee":"0.00"},{"businesstype":"","longtype":"06","thtype":"02","calledhome":"上海","cellid":"31381","thtypeName":"语音电话","twoplusfee":"","calllonghour":"10秒","calldate":"2017-03-05","calltime":"11:45:28","totalfee":"0.00","calltype":"2","othernum":"13331891183","otherarea":"310","romatype":"1","homearea":"上海","homenum":"","calltypeName":"被叫","landtype":"国内通话","romatypeName":"VPN呼叫","homeareaName":"上海","nativefee":"0.00","landfee":"0.00","roamfee":"0.00","deratefee":"0.00","otherfee":"0.00"},{"businesstype":"","longtype":"06","thtype":"02","calledhome":"上海","cellid":"21381","thtypeName":"语音电话","twoplusfee":"","calllonghour":"1分0秒","calldate":"2017-03-05","calltime":"11:19:57","totalfee":"0.20","calltype":"1","othernum":"13331891183","otherarea":"310","romatype":"1","homearea":"上海","homenum":"","calltypeName":"主叫","landtype":"国内通话","romatypeName":"VPN呼叫","homeareaName":"上海","nativefee":"0.20","landfee":"0.00","roamfee":"0.00","deratefee":"0.00","otherfee":"0.00"},{"businesstype":"","longtype":"06","thtype":"02","calledhome":"上海","cellid":"27552","thtypeName":"语音电话","twoplusfee":"","calllonghour":"8秒","calldate":"2017-03-04","calltime":"19:18:06","totalfee":"0.00","calltype":"2","othernum":"15002173065","otherarea":"310","romatype":"1","homearea":"上海","homenum":"","calltypeName":"被叫","landtype":"国内通话","romatypeName":"VPN呼叫","homeareaName":"上海","nativefee":"0.00","landfee":"0.00","roamfee":"0.00","deratefee":"0.00","otherfee":"0.00"},{"businesstype":"","longtype":"06","thtype":"02","calledhome":"上海","cellid":"11371","thtypeName":"语音电话","twoplusfee":"","calllonghour":"22秒","calldate":"2017-03-04","calltime":"18:51:52","totalfee":"0.00","calltype":"2","othernum":"18964144332","otherarea":"310","romatype":"1","homearea":"上海","homenum":"","calltypeName":"被叫","landtype":"国内通话","romatypeName":"VPN呼叫","homeareaName":"上海","nativefee":"0.00","landfee":"0.00","roamfee":"0.00","deratefee":"0.00","otherfee":"0.00"},{"businesstype":"","longtype":"06","thtype":"02","calledhome":"上海","cellid":"11903","thtypeName":"语音电话","twoplusfee":"","calllonghour":"26秒","calldate":"2017-03-04","calltime":"18:04:10","totalfee":"0.20","calltype":"1","othernum":"18964144332","otherarea":"310","romatype":"1","homearea":"上海","homenum":"","calltypeName":"主叫","landtype":"国内通话","romatypeName":"VPN呼叫","homeareaName":"上海","nativefee":"0.20","landfee":"0.00","roamfee":"0.00","deratefee":"0.00","otherfee":"0.00"},{"businesstype":"","longtype":"06","thtype":"02","calledhome":"上海","cellid":"13461","thtypeName":"语音电话","twoplusfee":"","calllonghour":"23秒","calldate":"2017-03-04","calltime":"15:32:19","totalfee":"0.20","calltype":"1","othernum":"17301670053","otherarea":"310","romatype":"1","homearea":"上海","homenum":"","calltypeName":"主叫","landtype":"国内通话","romatypeName":"VPN呼叫","homeareaName":"上海","nativefee":"0.20","landfee":"0.00","roamfee":"0.00","deratefee":"0.00","otherfee":"0.00"},{"businesstype":"","longtype":"06","thtype":"02","calledhome":"上海","cellid":"13461","thtypeName":"语音电话","twoplusfee":"","calllonghour":"13秒","calldate":"2017-03-04","calltime":"15:24:43","totalfee":"0.00","calltype":"2","othernum":"18217773870","otherarea":"310","romatype":"1","homearea":"上海","homenum":"","calltypeName":"被叫","landtype":"国内通话","romatypeName":"VPN呼叫","homeareaName":"上海","nativefee":"0.00","landfee":"0.00","roamfee":"0.00","deratefee":"0.00","otherfee":"0.00"},{"businesstype":"","longtype":"06","thtype":"02","calledhome":"上海","cellid":"13461","thtypeName":"语音电话","twoplusfee":"","calllonghour":"19秒","calldate":"2017-03-04","calltime":"15:01:47","totalfee":"0.20","calltype":"1","othernum":"18217773870","otherarea":"310","romatype":"1","homearea":"上海","homenum":"","calltypeName":"主叫","landtype":"国内通话","romatypeName":"VPN呼叫","homeareaName":"上海","nativefee":"0.20","landfee":"0.00","roamfee":"0.00","deratefee":"0.00","otherfee":"0.00"},{"businesstype":"","longtype":"06","thtype":"02","calledhome":"上海","cellid":"13461","thtypeName":"语音电话","twoplusfee":"","calllonghour":"1分19秒","calldate":"2017-03-04","calltime":"14:54:47","totalfee":"0.40","calltype":"1","othernum":"18964144332","otherarea":"310","romatype":"1","homearea":"上海","homenum":"","calltypeName":"主叫","landtype":"国内通话","romatypeName":"VPN呼叫","homeareaName":"上海","nativefee":"0.40","landfee":"0.00","roamfee":"0.00","deratefee":"0.00","otherfee":"0.00"},{"businesstype":"","longtype":"06","thtype":"02","calledhome":"上海","cellid":"13461","thtypeName":"语音电话","twoplusfee":"","calllonghour":"3分19秒","calldate":"2017-03-04","calltime":"10:35:53","totalfee":"0.00","calltype":"2","othernum":"02110000","otherarea":"310","romatype":"1","homearea":"上海","homenum":"","calltypeName":"被叫","landtype":"国内通话","romatypeName":"VPN呼叫","homeareaName":"上海","nativefee":"0.00","landfee":"0.00","roamfee":"0.00","deratefee":"0.00","otherfee":"0.00"},{"businesstype":"","longtype":"06","thtype":"02","calledhome":"上海","cellid":"13461","thtypeName":"语音电话","twoplusfee":"","calllonghour":"22秒","calldate":"2017-03-04","calltime":"09:53:41","totalfee":"0.00","calltype":"2","othernum":"02123527494","otherarea":"310","romatype":"1","homearea":"上海","homenum":"","calltypeName":"被叫","landtype":"国内通话","romatypeName":"VPN呼叫","homeareaName":"上海","nativefee":"0.00","landfee":"0.00","roamfee":"0.00","deratefee":"0.00","otherfee":"0.00"},{"businesstype":"","longtype":"06","thtype":"02","calledhome":"上海","cellid":"10242","thtypeName":"语音电话","twoplusfee":"","calllonghour":"9秒","calldate":"2017-03-04","calltime":"00:22:18","totalfee":"0.20","calltype":"1","othernum":"96811","otherarea":"310","romatype":"1","homearea":"上海","homenum":"","calltypeName":"主叫","landtype":"国内通话","romatypeName":"VPN呼叫","homeareaName":"上海","nativefee":"0.20","landfee":"0.00","roamfee":"0.00","deratefee":"0.00","otherfee":"0.00"},{"businesstype":"","longtype":"06","thtype":"02","calledhome":"上海","cellid":"36832","thtypeName":"语音电话","twoplusfee":"","calllonghour":"18秒","calldate":"2017-03-03","calltime":"19:41:49","totalfee":"0.00","calltype":"2","othernum":"15002173065","otherarea":"310","romatype":"1","homearea":"上海","homenum":"","calltypeName":"被叫","landtype":"国内通话","romatypeName":"VPN呼叫","homeareaName":"上海","nativefee":"0.00","landfee":"0.00","roamfee":"0.00","deratefee":"0.00","otherfee":"0.00"}],"totalCount":27,"pageNo":1,"pages":[{"pageNo":1,"curr":true},{"pageNo":2,"curr":false}],"pageSize":20,"totalPages":2},"isSuccess":true,"userInfo":{"packageName":"4G全国组合套餐","status":"开通","provincecode":"031","usernumber":"18521705531","expireTime":"1488859129856","nettype":"11","areaCode":"","certnum":"4290****1534","opendate":"20141023083355","paytype":"2","productId":"18521705531","custName":"高锡","citycode":"310","brand":"4G00","productType":"01","packageID":"89002148","customid":"8914110131632988","custlvl":"三星用户","currentID":"18521705531","loginType":"01","nickName":"高锡","subscrbstat":"开通","laststatdate":"","brand_name":"沃4G后付费","is_wo":"2","is_20":false,"is_36":false,"certtype":"02","loginCustid":"8914110131632988","verifyState":"","lastLoginTime":"2017-03-07 09:58:49","defaultFlag":"00","isINUser":"0000","mapExtraParam_rls":"03","custsex":"1","certaddr":"湖北省天门市黄潭镇敖堤村二组18号"},"totalRecord":27,"msg":"查询接口成功，返回数据","isFixNum":false,"timeresult":true}
